<svg width="20" height="20" viewBox="0 0 20 20" fill="none" xmlns="http://www.w3.org/2000/svg">
    <g clip-path="url(#clip0_555_18)">
        <path d="M16.7192 8.74917H11.25C11.0038 8.74928 10.7599 8.70089 10.5324 8.60676C10.3049 8.51264 10.0981 8.37462 9.92393 8.20058C9.74974 8.02655 9.61154 7.81991 9.51721 7.59247C9.42288 7.36503 9.37428 7.12123 9.37417 6.875V1.40584C9.37417 1.36443 9.35778 1.32471 9.32857 1.29535C9.29937 1.26599 9.25974 1.24939 9.21833 1.24917H5.62417C4.96113 1.24917 4.32524 1.51256 3.8564 1.9814C3.38756 2.45024 3.12417 3.08613 3.12417 3.74917L3.12417 16.2492C3.12417 16.9122 3.38756 17.5481 3.8564 18.0169C4.32524 18.4858 4.96113 18.7492 5.62417 18.7492H14.3742C15.0372 18.7492 15.6731 18.4858 16.1419 18.0169C16.6108 17.5481 16.8742 16.9122 16.8742 16.2492V8.905C16.8739 8.8636 16.8573 8.82396 16.828 8.79476C16.7986 8.76556 16.7589 8.74917 16.7175 8.74917H16.7192Z" fill="#707070"/>
        <path d="M16.375 7.36667L10.7583 1.74917C10.7511 1.74194 10.7425 1.73623 10.7331 1.73237C10.7237 1.72851 10.7135 1.72657 10.7033 1.72667C10.6827 1.72666 10.6629 1.7348 10.6482 1.74931C10.6336 1.76382 10.6252 1.78353 10.625 1.80417V6.875C10.625 7.04076 10.6908 7.19973 10.8081 7.31694C10.9253 7.43415 11.0842 7.5 11.25 7.5H16.3208C16.3311 7.5 16.3412 7.49797 16.3507 7.49402C16.3601 7.49007 16.3687 7.48429 16.3759 7.47701C16.3831 7.46972 16.3888 7.46108 16.3927 7.45158C16.3965 7.44208 16.3984 7.43191 16.3983 7.42167C16.3983 7.4114 16.3963 7.40125 16.3922 7.3918C16.3882 7.38235 16.3824 7.3738 16.375 7.36667Z" fill="#707070"/>
    </g>
    <defs>
        <clipPath id="clip0_555_18">
            <rect width="20" height="20" fill="white"/>
        </clipPath>
    </defs>
</svg>
