<svg width="20" height="20" viewBox="0 0 20 20" fill="none" xmlns="http://www.w3.org/2000/svg">
    <g clip-path="url(#clip0_555_11)">
        <path d="M12.5 10C12.5001 10.5784 12.2997 11.1389 11.9329 11.5861C11.566 12.0333 11.0555 12.3394 10.4882 12.4524C9.92095 12.5654 9.33208 12.4781 8.82193 12.2056C8.31178 11.933 7.91191 11.492 7.69048 10.9577C7.46904 10.4233 7.43972 9.82876 7.60752 9.27524C7.77532 8.72172 8.12986 8.24351 8.61073 7.92209C9.09159 7.60067 9.66903 7.45593 10.2446 7.51253C10.8203 7.56913 11.3585 7.82357 11.7675 8.2325C12.2364 8.70123 12.4999 9.33701 12.5 10Z" fill="#707070"/>
        <path d="M19.1733 9.32C18.1709 7.75338 16.8497 6.41546 15.2958 5.39333C13.7214 4.3454 11.8778 3.77473 9.98667 3.75C8.26983 3.76614 6.59052 4.25422 5.1325 5.16083C3.42789 6.22393 1.96779 7.63603 0.848334 9.30417C0.706872 9.50786 0.629197 9.74903 0.625191 9.99699C0.621184 10.245 0.691027 10.4885 0.825834 10.6967V10.6917C1.81205 12.2598 3.12078 13.6001 4.665 14.6233C6.24138 15.6749 8.09178 16.2405 9.98667 16.25C11.8798 16.2294 13.7269 15.6635 15.3067 14.62C16.8635 13.5974 18.1831 12.253 19.1767 10.6775C19.3064 10.4736 19.3746 10.2368 19.3733 9.99515C19.372 9.75354 19.3011 9.51742 19.1692 9.315V9.32H19.1733ZM10 13.75C9.13242 13.75 8.29168 13.4492 7.62103 12.8988C6.95039 12.3484 6.49133 11.5825 6.32208 10.7316C6.15283 9.88065 6.28386 8.99737 6.69284 8.23224C7.10182 7.4671 7.76345 6.86744 8.565 6.53544C9.36654 6.20344 10.2584 6.15963 11.0886 6.41148C11.9188 6.66333 12.6361 7.19526 13.1181 7.91663C13.6001 8.638 13.817 9.50418 13.732 10.3676C13.6469 11.231 13.2651 12.0382 12.6517 12.6517C12.3034 12.9999 11.89 13.2761 11.4351 13.4646C10.9801 13.653 10.4925 13.75 10 13.75Z" fill="#707070"/>
    </g>
    <defs>
        <clipPath id="clip0_555_11">
            <rect width="20" height="20" fill="white"/>
        </clipPath>
    </defs>
</svg>
