<svg width="82" height="67" viewBox="0 0 82 67" fill="none" xmlns="http://www.w3.org/2000/svg">
<rect width="82" height="67" fill="#F5F5F5"/>
<path d="M63.6667 16H22L38.6667 35.7083V49.3333L47 53.5V35.7083L63.6667 16Z" stroke="black" stroke-opacity="0.7" stroke-width="2.05" stroke-linecap="round" stroke-linejoin="round"/>
<g style="mix-blend-mode:multiply">
<path d="M0 0H82V67H0V0Z" fill="#D9D9D9" fill-opacity="0.5"/>
<path d="M0.5 0.5H81.5V66.5H0.5V0.5Z" stroke="black" stroke-opacity="0.2"/>
</g>
</svg>
